[
    {
        "id": 0,
        "value": 0,
        "name": "Normal"
    },
    {
        "id": 1,
        "value": 1,
        "name": "Warning"
    },
    {
        "id": 2,
        "value": 2,
        "name": "Danger"
    }
]